\relax 
\providecommand\hyper@newdestlabel[2]{}
\providecommand*{\memsetcounter}[2]{}
\bbl@beforestart
\providecommand\HyperFirstAtBeginDocument{\AtBeginDocument}
\HyperFirstAtBeginDocument{\ifx\hyper@anchor\@undefined
\global\let\oldcontentsline\contentsline
\gdef\contentsline#1#2#3#4{\oldcontentsline{#1}{#2}{#3}}
\global\let\oldnewlabel\newlabel
\gdef\newlabel#1#2{\newlabelxx{#1}#2}
\gdef\newlabelxx#1#2#3#4#5#6{\oldnewlabel{#1}{{#2}{#3}}}
\AtEndDocument{\ifx\hyper@anchor\@undefined
\let\contentsline\oldcontentsline
\let\newlabel\oldnewlabel
\fi}
\fi}
\global\let\hyper@last\relax 
\gdef\HyperFirstAtBeginDocument#1{#1}
\providecommand\HyField@AuxAddToFields[1]{}
\providecommand\HyField@AuxAddToCoFields[2]{}
\babel@aux{english}{}
\@writefile{toc}{\contentsline {chapter}{Contents}{1}{section*.1}\protected@file@percent }
\@writefile{toc}{\contentsline {chapter}{\chapternumberline {1}Introduction}{2}{chapter.1}\protected@file@percent }
\@writefile{toc}{\contentsline {chapter}{\chapternumberline {2}Use of the script}{2}{chapter.2}\protected@file@percent }
\@writefile{lof}{\contentsline {figure}{\numberline {1}{\ignorespaces Screenshot of the script's user interface when it is run in Eclipse.}}{2}{figure.2.1}\protected@file@percent }
\@writefile{toc}{\contentsline {chapter}{\chapternumberline {3}List of files}{3}{chapter.3}\protected@file@percent }
\@writefile{toc}{\contentsline {chapter}{\chapternumberline {4}Included metrics}{4}{chapter.4}\protected@file@percent }
\@writefile{toc}{\contentsline {chapter}{\chapternumberline {5}Known bugs}{4}{chapter.5}\protected@file@percent }
\memsetcounter{lastsheet}{4}
\memsetcounter{lastpage}{4}
