\babel@toc {english}{}
\contentsline {chapter}{Contents}{1}{section*.1}% 
\contentsline {chapter}{\chapternumberline {1}Introduction}{2}{chapter.1}% 
\contentsline {chapter}{\chapternumberline {2}Use of the script}{2}{chapter.2}% 
\contentsline {chapter}{\chapternumberline {3}List of files}{3}{chapter.3}% 
\contentsline {chapter}{\chapternumberline {4}Included metrics}{4}{chapter.4}% 
\contentsline {chapter}{\chapternumberline {5}Known bugs}{4}{chapter.5}% 
